<svg width="20" height="20" viewBox="0 0 20 20" fill="none" xmlns="http://www.w3.org/2000/svg">
<path d="M7.5 9.16667L10 11.6667L16.6667 5" stroke="#82868C" stroke-linecap="round" stroke-linejoin="round"/>
<path d="M16.6663 10.0002V15.0002C16.6663 15.4422 16.4907 15.8661 16.1782 16.1787C15.8656 16.4912 15.4417 16.6668 14.9997 16.6668H4.99967C4.55765 16.6668 4.13372 16.4912 3.82116 16.1787C3.5086 15.8661 3.33301 15.4422 3.33301 15.0002V5.00016C3.33301 4.55814 3.5086 4.13421 3.82116 3.82165C4.13372 3.50909 4.55765 3.3335 4.99967 3.3335H12.4997" stroke="#82868C" stroke-linecap="round" stroke-linejoin="round"/>
</svg>
