<svg width="12" height="7" viewBox="0 0 12 7" fill="none" xmlns="http://www.w3.org/2000/svg">
<path d="M10.7778 0.75L5.88889 5.80747L1 0.75" stroke="#fff" stroke-linecap="round" stroke-linejoin="round"/>
</svg>
