<svg width="20" height="20" viewBox="0 0 20 20" fill="none" xmlns="http://www.w3.org/2000/svg">
<path d="M15.8333 3.33301H4.16659C3.70635 3.33301 3.33325 3.7061 3.33325 4.16634V5.83301C3.33325 6.29324 3.70635 6.66634 4.16659 6.66634H15.8333C16.2935 6.66634 16.6666 6.29324 16.6666 5.83301V4.16634C16.6666 3.7061 16.2935 3.33301 15.8333 3.33301Z" stroke="#232323" stroke-linecap="round" stroke-linejoin="round"/>
<path d="M7.49992 10H4.16659C3.70635 10 3.33325 10.3731 3.33325 10.8333V15.8333C3.33325 16.2936 3.70635 16.6667 4.16659 16.6667H7.49992C7.96016 16.6667 8.33325 16.2936 8.33325 15.8333V10.8333C8.33325 10.3731 7.96016 10 7.49992 10Z" stroke="#232323" stroke-linecap="round" stroke-linejoin="round"/>
<path d="M11.6667 10H16.6667" stroke="#232323" stroke-linecap="round" stroke-linejoin="round"/>
<path d="M11.6667 13.333H16.6667" stroke="#232323" stroke-linecap="round" stroke-linejoin="round"/>
<path d="M11.6667 16.667H16.6667" stroke="#232323" stroke-linecap="round" stroke-linejoin="round"/>
</svg>
